<?xml version="1.0" encoding="UTF-8"?>
<CustomTab xmlns="http://soap.sforce.com/2006/04/metadata">
    <customObject>true</customObject>
    <description>Contacts associated to Premises</description>
    <mobileReady>false</mobileReady>
    <motif>Custom44: Hammer</motif>
</CustomTab>
